<svg width="168" height="56" viewBox="0 0 168 56" fill="none" xmlns="http://www.w3.org/2000/svg">
<path d="M156.5 46C110 92.9995 66 -67.0001 1 36.5004" stroke="#3CDCD2" stroke-dasharray="4 4"/>
<circle cx="162" cy="41" r="5.5" stroke="#3CDCD2"/>
<circle cx="162" cy="41" r="3" fill="#3CDCD2"/>
</svg>
